x_1,x_2,y
-0.808571428571,0.837209302326,0.0
0.357142857143,0.85049833887,0.0
-0.751428571429,-0.730897009967,0.0
-0.3,0.126245847176,0.0
0.642857142857,-0.544850498339,0.0
0.871428571429,0.624584717608,1.0
-0.02,-0.923588039867,1.0
0.362857142857,-0.318936877076,1.0
0.888571428571,-0.870431893688,1.0
-0.528571428571,0.511627906977,1.0
